<svg width="22" height="22" xmlns="http://www.w3.org/2000/svg">

 <g>
  <title>background</title>
  <rect fill="none" id="canvas_background" height="24" width="24" y="-1" x="-1"/>
 </g>
 <g>
  <title>Layer 1</title>
  <g fill="#fff" id="União_337">
   <path id="svg_1" d="m20.84781,12l-19,0c-0.5514,0 -1,-0.4486 -1,-1c0,-0.5514 0.4486,-1 1,-1l19,0c0.5514,0 1,0.4486 1,1c0,0.5514 -0.4486,1 -1,1z"/>
   <path id="svg_2" fill="#fff" d="m1.84781,10.5c-0.2757,0 -0.5,0.2243 -0.5,0.5c0,0.2757 0.2243,0.5 0.5,0.5l19,0c0.2757,0 0.5,-0.2243 0.5,-0.5c0,-0.2757 -0.2243,-0.5 -0.5,-0.5l-19,0m0,-1l19,0c0.82843,0 1.5,0.67157 1.5,1.5c0,0.82843 -0.67157,1.5 -1.5,1.5l-19,0c-0.82843,0 -1.5,-0.67157 -1.5,-1.5c0,-0.82843 0.67157,-1.5 1.5,-1.5z"/>
  </g>
 </g>
</svg>