<svg width="131.572" height="101" xmlns="http://www.w3.org/2000/svg">

 <g>
  <title>background</title>
  <rect fill="none" id="canvas_background" height="103" width="133.572" y="-1" x="-1"/>
 </g>
 <g>
  <title>Layer 1</title>
  <path fill="#9e6e86" d="m126.50802,39.79456l-66.98397,58.36449a6.762,6.762 0 0 1 -10.72973,-1.87483l-46.33236,-83.67796a6.762,6.762 0 0 1 7.65843,-10.21367l113.31329,25.30601a6.74268,6.74268 0 0 1 3.07434,12.09596z" id="Caminho_41217"/>
 </g>
</svg>